3_ADC/AD9234_Demo/.Xil/Vivado-29240-DESKTOP-9BSENP7/hw_ila_data_1/zip_work/waveform.vcd
$date
        2018-Aug-09 10:02:23
$end
$version
        Vivado v2017.4 (64-bit)
$end
$timescale
        1ps
$end
$scope module dut $end
$var reg 128 " i_system_wrapper/system_i/axi_ad9680_jesd/phy_data [127:0] $end
$var reg 8 D" i_system_wrapper/system_i/axi_ad9680_jesd/rx_rx_ilas_config_addr [7:0] $end
$var reg 1 L" rx_sync $end
$var reg 1 M" rx_sysref $end
$var reg 1 N" _TRIGGER $end
$var reg 1 O" _WINDOW $end
$var reg 1 P" _GAP $end
$upscope $end
$enddefinitions $end
#0
$dumpvars
b10010010111011101100100000100010101001100001100000110001100001000110101011111011101001001111010011010101101110010101100110110100 "
b0 D"
1L"
0M"
0N"
1O"
0P"
$end
#1
b10001101100000110100110101000111111111001110100011010101010100110110010101111001101111101100101100001111011110101111110110010100 "
#2
b1110101010001100001111000011001001101100010110000001001011100101110111000010001100011011010011111001101010010000010001000011100 "
#3
b11101100111100000110110110101101101010111001110110110111010000000001000011011101101111010010011101101101011111010110110110010 "
#4
b1000010000110010110111101110100100001101111010110111110001010010010000011111110110111111000101001101001010000010110110011100000 "
#5
b1111011000011001110101100111011110111000111000010100001111011011110000101000000100101101010000111110000100110111010110000111 "
#6
b1001000110101000001001101010110010111101101111000011010001001011100000000011011011010000011001100011111011111111000010101101010 "
#7
b1111101010101011001001011101001100101111001110011000110110001010011100110110001010100111001100010001100000011010100001000000010 "
#8
b10111011101100100011110011001111001010011011101101110011010010110100000011100101010101110110011011110010111011100010100000101101 "
#9
b10000101101100011011100110111111001111110101111011110101100110100011100110010011010100111001111111101111010101000010110101100110 "
#10
b101110001011100000110110000101000000111001101110000000110001000011100000001101010101001101101001000000000111010110000011111010 "
#11
b10100111101110101100011011000100001110001101110000001011010110100100100011110101010000111000111000000101101000011000000101001111 "
#12
b110000000001111000110001111011011111011001110010010110010000010111011010011010100101111111101001011100101000001110011000110 "
#13
b10001010111100000011010000100000010001001111101101100001101010110101100000111100001101000010101010011010000101011011101101111001 "
1M"
#14
b1001000000010110111110000000011010100010101100110011000000110111101011000110110000000010101100111001110000011110101110101111101 "
#15
b1000010110110011001000000101011010110101111000011100100110101110100110011100101010001010111011011011010110000111010010000100000 "
#16
b11000101011100011010111011100111110010101100010011011100001000010111111110100011010010101110111111000010001100101101111110001000 "
#17
b10100101011010111011111000010100100000110101111110111111100110100101111011011000110000100000101100100000111001111000111110101110 "
#18
b100001100101001111111101001001001100111000011000001000110000011010101110100110000101000001000110000100111011101100000101010010 "
#19
b10000111100101111011101011000111111010111101110101010000101000011111011010010001010100000011101010111010100100001100101100111 "
#20
b10110000001110010100000000001100001001010101000000001110000110000101100101011001010001000010110000100001011011001111000011101101 "
#21
b101000111111011000001110100101110010010100001011011100111000000001011011000010001101100001011110010011011100101100011101101000 "
#22
b11000011101101101101000000111110101111100010011110110101100011100111111101111011101101010101110001111110111000110110101000101111 "
#23
b10010111011001111011100110010110000101101110010110000110110100010111000101101001101100001100101100011101101110100000010101001011 "
#24
b11011001101101110101001101000001001111001100010101110101010111101001111000010000111001011010011110101111010010010100110110011100 "
#25
b1111110000100101110010110000000001110110100011110001011100111101011001000001001100101111011001101000101101111001110000110110101 "
#26
b10101101100111100011010101001101010101110110111110011001100100101101011011101111011111101111010101001110001101011001110110001001 "
#27
b10000011011100001100111101100111001010110100100011110011011000110111001101110000001101111011000011010001100000011010011110111111 "
#28
b11111100010100001101000110011000101011010001011111001101100001000001011100101100110001111000101010100000110101110011000000100 "
#29
b1101100000010010110001000001100000010111010100101111100110011000111000110011100110011111001110100010100110011001111100101011101 "
0M"
#30
b10100010111000110100100000100111100100000011010000111000111101101000111000110100111001011010100100011000111100010111101110101000 "
#31
b11011100111101001101110101011001010010011001101101100011101110111001110011001000111001010111101111100010110101010101000000100110 "
#32
b110001010011101111100000011010101100001101100110110111010110111000001110111001100110000000001110100100000010010100111011111100 "
#33
b1011110000010111001010110000100110011101111110110100010110101010000110000011100110110100010010111010011101111001101100000110101 "
#34
b1001011110001111010000011011110110000010101110100100000011000111100011100010110010111000100001110110001111101110100110001010 "
#35
b11110110110100000010011000100000111011000001001011010010111110000101111110111100110100101111110110110010000111100011011110000101 "
#36
b110000110111000000011110100010011101110110010101101001011011101100110000100110000000100011100111101101100100011010110101000111 "
#37
b1001101011000111001001011101000101010001100001000110011010111111000001110110100000110000001011001100011010110010110111101100100 "
#38
b10010001100110011011111101011011001010100010000011110011100011110110111011111000110010100000101110110010111100110100100011010111 "
#39
b10110010001011110100011101110101000001111000001011111110110000000110010000110101101101101100000111101010111101011010110000101001 "
#40
b1100000111001011001111110100001011011000010100000010010000011001110010011010001100110010111111100001011100010010111110000111100 "
#41
b1100101100000110110000101001111011111000010011101101010111100011111011000111011100010010101010010011111101101000011101000110110 "
#42
b110110110110110111111000101011001111101110101000001010110100111000111000000010111101010101100010000101100110110100000110111011 "
#43
b100100001011111000011011111010000111100000101110000101011111000100001101000000110001111011111101000000110101100001111101011001 "
#44
b111110110111101111101011010010100110111001110101000100001110100111101101010111010010110100000100001100001111011000001011110101 "
#45
b11110101011010111010011011100100110110011010111101011011010011010001101101001000110110110100001111111010001001000010101110001110 "
1M"
#46
b1110000111000000001111101011000111110010100001011010100111000001001100011110011100110110111000001000110110111000001111011011010 "
#47
b10110111011001100011000101100001011111100010010000010101100011101010100011100100111000111000100101110111101101011001011011001001 "
#48
b1111010000100011001001101110111000101101101011000000110110110010000100011101010001000111001101110100101100000100011000110111111 "
#49
b11011101101100100010110101010111001101000011100101110110111101001000101101001010111100111011110011000100001000001101111000001111 "
#50
b101110000001101111110110001110100110110111011110111011100101100011100110110000110110110111111101011111100011111001101011000010 "
#51
b10111011100110101100010000100100110111111010011101011010001100010100000110000001010001110111000010001110110010001100001000100011 "
#52
b11111010001100001101101101111111100000101110001011000000110100000100111000000011010001011011011111010001101010100010011110110011 "
#53
b11110010001011000010111110000010001011011010001000001101010011111000010101111011011001101100101101011000000001101110010011111110 "
#54
b1100111100011000001111011001010011010111010101011101100110011000010100000000100110111001100100111100001011111001101000000010101 "
#55
b10101101011101110100001000011001000100000000111101111000111111010001110000000000001000101101100010010100001111010100011000001010 "
#56
b10010101010001001100111000000001010000101100110101100000001000101000110000100011100110101101000000011010001011110111101110001101 "
#57
b1011100110010110110110110101011001000001110000110001111101011111010001110000100111010000001100111000101010011010101111011100010 "
#58
b11101010000010001101101110001011100001011001011011000001010001100011000000001010001010001100101101001100111010111001110110101100 "
#59
b10111111011111010100110101100010010000100011001000011111011101110101100011101001010000111000110011110110000110011010100101111011 "
#60
b11101110110111011010001000101101001000001110110110001111101011010110101000010010001100111010011110111100111110000011010101010100 "
#61
b100000110010111011011111100100001110110011011000001011011100101010101101101101111101101110100110001011010011000100000010011 "
0M"
#62
b10111011001000000100101100110011010001111001000010011010101110100111101010010001111011010111111010010001101111010011101110110 "
#63
b10111001100100010100001101001000001000101110111101110000001011011010110000111111011000100010110101100001101000101110111110110000 "
#64
b10000010001011011011011101110101101011110100111011001101011000100101000101110110001110000011000110011011101011110100010011001101 "
#65
b1110111100111100001111011001101010001001101000011100001101001110000101011111110001001001111010111010001010001110101100011100001 "
#66
b1001011011111100001001101100101010111010100010110011010111000011100010000101010111111101100010001011111011000101110010110010000 "
#67
b11101011011011000101000010101101011110100000011001101100111110001000101010101010110000011111010001001101011001100001101001101 "
#68
b1010001101101010110111101001110010001100000100011100001100000110110010000100111101001100010111010111001011110100011010011101011 "
#69
b10111101101000001100010110111111011110111010010110010100001100011011001110111001100110000000001101110101010000011001011000011111 "
#70
b10011001010110001100110011100011010100101100001000011000110111111000110000011110000110100010010110001110000100100011110110000111 "
#71
b10111011101110110100010011000011011000100010110011101111100011011011100011010000111010111000011111011111011000100010010101101111 "
#72
b11010101100001011010100110111001101001010111011101001110111010010100000000001011010000000010001110001001101001101100001101001110 "
#73
b11110101011010101101111000001100110001111010010011011110001100010110111110111011010000101110101110111010111100100011010011010111 "
#74
b1100000111001000000111101011110011000101101111110010000110110100010101000001001101000110100101101001010111000011001110000101111 "
#75
b11010111011001110101000101101001101001111000101101001110110000110100000110110100001111111000011010001101100100011011110101000111 "
#76
b1101001101100101110001101000000111011111001010011010010001110011011000110100111011001110111100111100011010111100010111101100101 "
#77
b11011110001111110101010110001101010010100001110101100011011110101001011110110111011001100001000110110011100101010100100011000110 "
1M"
#78
b1110011010000101110011110010000100011011010000110111101010011110110100011000101101100110111000111111010000011011010101101111101 "
#79
b1100111011111100001100110011101111010111001111000101100110001010001000000100001101000000010111101001010111010000001110000101100 "
#80
b1001110110011100001001000100101000110011001010101111011010001100010001011010110110100000000011010001110001001011011110101110001 "
#81
b1010010000011011000011110000101111100100000010101010111011111101000100101111000000111000011010011010110110011100010011011011101 "
#82
b10001111010100001100110101101111111010010100100000101100000111001100100000111001100001001100001100110000110101101111011110100110 "
#83
b100011101110100000000011000011001111011010110101110101101100101000010110001001011000010110010011001100001110111010001011110100 "
#84
b1000101101010101110100110111100001010010110011110001100111011100110101011011100110011001111010111111011010100111010101110011000 "
#85
b10111010110011011011110011011101001100001110111011110111010100100100101011110101101111000001100101010001011100000001100011101000 "
#86
b11000001100111011011111110111101110001110101101110100001011001001100011110110011011111101110111101010110110001001110011000100001 "
#87
b11110011010010111010011101101100011000101101001110010000110110000011111011100001010100100001100000110011010101001111011110011001 "
#88
b1010110000000000001100110001000101001010111101101001110111010110111000011010101010001111000011011110000000100111010100011111000 "
#89
b11011010110101001101010000100001110001010101010011011110000110011000011101000000111000010100111111000111011100000010000101101000 "
#90
b10010110111111101100111011011010010010000001111110011100111110101100101000111000111100110101001101101110110011111001001000100010 "
#91
b1101011100000110110010000110111101001011000100110110001010000111010111000111101011011010100001001010000110010110110011110100011 "
#92
b101111101110110111101000111011110001111011110011011110001101011100111000001110000001010101110101001001100110001110001110111011 "
#93
b10010101101111101100000110111010011001100011111110010001100010101000011110010101011001101110011010110000111001011011011101010001 "
0M"
#94
b10011100111100110100110110110111111100100000101101010111100000110110011000111100110000011010110111000100110011011010000101011101 "
#95
b1010001011101110110100000011001111010111001000000101100001110001101111101100101100001010100100101011000111010111001101110101100 "
#96
b11100110111010001101011000100011000110110100110101111011011000101011010110001000000100011001110011100110000110001101000101111011 "
#97
b11100110011010111010101010010110101001110010101011001101011101100101110011011011111001111001111111100111011010101010101010010 "
#98
b1101010000101010110101110001110000101001100101011111001010111001100010110110001011010011001100000110111011010000000100101101100 "
#99
b11001100110000110101110101011111000110011000100101111011101111000101000110011000001011110110010010101010001000111011001101110000 "
#100
b11001100000111000101110111000111101111011010101010110001101100100101110010111010101001110000100000111101101001111111011001001 "
#101
b10110110111011010100011000101010101001011000100000110001101111001100011101111011011110011011001101100101100100000001000110111000 "
#102
b1101101100111011001010101001101110001111010100011011110001100110101000000000001010000001101100011000011010001110101111101100001 "
#103
b11010011010100110101111101101111011000000010111110010000111100100010101101110010001000111011011100110111011000111000100110010000 "
#104
b11000000000100101101100011111000100011010100101101000010111000110100001110111000001110001110110010101001101111111011001101001010 "
#105
b11010010110001111010000000101110111011011001011000101101101110010101110000000110001110100010000100111110000001001111010110000001 "
#106
b11000001100100111010111110110000011000100011010101101111011101101000101101101110000110111010010100011001010100111000010000011000 "
#107
b1010001101000111001011101001000101000011000001101001111101111111010000000110000111110001101011111111001011111010101010011101010 "
#108
b11011001010110001101010011101011100101000011010011000110000010011100010110011010000000010111001101110100001010000001011000001100 "
#109
b1011000000011111001010011110010000110011001101101111011101110110001110110010101010111011001111010011100001001100011101011110001 "
1M"
#110
b110010111110001111000000100011111100001101110101010111010110101001111000110111100111011011111010111110111100110100101011010111 "
#111
b10101010111000111011110000100000110011111010100000100010110011001110101011000101100001000000000100011010111101011000010000101001 "
#112
b11111110001101001101110101111001110000000010111110100000111100100101111000011011101111010101110011001011100001010101110000111110 "
#113
b11110011011111000010011110011010000011010100001110000010111000001011000110011010000101111001101110011101010010111011101000011100 "
#114
b1111101111000000101000111010111011100011110000101101100010101000101110110011011001001110111110101101100101110100110110111001 "
#115
b1000100111100000001000110101000010100100011110101100111100010101111100110110101100010110110100101100010001001001110111101110001 "
#116
b101011000100000000001011000100010000011101111100011110011001101111010110101110101110010100110110101110100111011011001 "
#117
b11010101100101000010000101001110101001111000011101001110110000011011011000101001011010011010110011110100001001001101011011110001 "
#118
b11100001100011101101111101001010111011010110010011010010000100011101100000011110000001000010010110011110110111000011101011011010 "
#119
b11100111100101010101011000110110011000001101110101101111010110100110100110110100001100111001011010010111101110110100011011001011 "
#120
b1011001100010010110001101001100100011111010001101000010110011110000011011110101101001100000100100100111010101110111000110011001 "
#121
b11110100001000001101011000000111110000111011011000100000110010011111011011010110111101101111111011100000001011101101000011110010 "
#122
b111110110011010111101011010010001101011011011110001001101101101001111000110110111001010100011010001101010101010100001011100110 "
#123
b10000001100101111011011110111110100011011010111110111101101100101110110110000000111101010110011111101000000011100010110011111101 "
#124
b10010000110001100011011101010001111010010100011000101100111000010000100101001111101011001100001000100010110101010111000000100110 "
#125
b10111010001000110100001110000111001111110111010101110101100101101111000110001110111101110110001010100100000001101100111011111110 "
0M"
#126
b11000101011001011010111011101001000011111000011110000010001111101010110110110111100101011001011011010001011100001101100000010111 "
#127
b11010010111000111101101100110011010110110000100010000100100010000110010110001011110111000101010110110011101110011000100010 "
#128
b10110110001011000011100110001010111000110111111110101111011010101011111101101000000101011011010000110000110111001111011110100101 "
#129
b100111100010011000011011001011101111000000000101001010000000000100011000001011010000011010001111001111101100111010001011001000 "
#130
b1110111101101111001000100110001100000001110110001000000001010101011110101011010001101111101111000100111100111010000110101000 "
#131
b10001001010110000011010000010100110001011010011110100001010011100110110000111010001100100010101101010010111100111001100000101000 "
#132
b11101001011110100010010011100011010010101110001110011100110100000101011101111101101110010101110101101010111110001110110000101011 "
#133
b11010100000001010101011000001110100011011011100110111101010010110000000000000010001000001101111100001001011001110111110000010001 "
#134
b11100100111110101101100101011100111011110111111000101101100101010110101101001010110000111011110010110000111011000011011101010010 "
#135
b110010110001010111100000101110010011000001010101100010000001101000100011011101100110110110110111000111011110011010000101101011 "
#136
b1100000111101111001111110101110111101100000000110101001011111111000001110001100111000000001110101101101011110111001001000010100 "
#137
b110001010010110111000000010011101110000001100000110100000001001010010011111000111010011001101101100101010110110110111000011011 "
#138
b10111110000111111011010110001010011001001110100110010001010100111000110101011010000010101101001111001010110110110101110011011011 "
#139
b10001110000101011011010101110001110101100011001101011001011101111100011011110000111111100000111110000110110100111011111011011000 "
#140
b1011011100111100000010000111101001100001111001011110111101010000110011110001100001001101110001001110101011101100001011011101001 "
#141
b1001010000111001110101101110101110000101110101110100000001011001010001110110101100100001110100110000111101111100011111000110101 "
1M"
#142
b1101000001001011001110000001001001011100001001110001101011110001111100110111110000010110111110101100110000100100001000110000111 "
#143
b10101101010000110100001011101111010111110111111011100101011010100010010101110110110101100011011011111111011011110101010101101101 "
#144
b11011101101001001101110110111001100011000001110011000010000001011010110011011001011011011000010000001011010000000000001101100000 "
#145
b101000001111101111110011111010111101011011101000101001010010110011001110111110001010000001010110010110000000000011100110000000 "
#146
b11001001100010101101001110110100100011110100010000111101100111101010101101001001011010110100010000111000000010110111010000000011 "
#147
b100100000001111000011000001110110001110101101000100001100110111000100011111110000110110111010101100011100111111001000000111010 "
#148
b10010011100011101100100000100010011000101100011110010000110111101001110000100000111100101101011110111001100010110100101101000011 "
#149
b11111101010100110101101000010111101000110110101101001111100100111111001011011001100010000000001101110111100101011001011000111001 "
#150
b11011010111100000010110011011000101110100001010011001011011110011100101011011010111111000000010010101010000000100011001101111111 "
#151
b101000001111101111110000000010010011100001100110011101011110111110101011100101011111000000111000001000001000001111110000001111 "
#152
b10111000111110101100001110100100110111001111000110100101010101110100000011111011101111111001110010101111100000000011001011000000 "
#153
b100011101100011000000000111111101100101101101011001000001001000101111110101011010000101111101101001100000010001110001000000011 "
#154
b1010101100101101110100110110110111001101100000110101110110111111100110000111010000000100010101111110011101001011010100000110001 "
#155
b10000001101011001100111101000101111100100001100101010111100001001011011101110101011010010100111011110010110010000010100011011100 "
#156
b10011011100110100011010011001011111011001111100000101101010101000010010110011111010100011000110111100001101011000010111110110010 "
#157
b1101010100110111101000011111011100010110110101101000000100101010110011001100000111011000001010011001011111010100010011101010 "
0M"
#158
b1101100110011000001110110101010110100110110001000100111011011110100010110111010001110010110101111110100001011110101011000001101 "
#159
b10011101010001110100101011101001011110011010011011101011010011100000001000011111010111110101110110011101010000000011101011100000 "
#160
b1011101100001110110110110100001011110101111111000010100110101011010000011001110111011111000001010101110000010110100110110000011 "
#161
b100100001010001111111000000011010010000001111000011100000001011100001110100010000000000001011101011011100101001110010000111001 "
#162
b111111101000101110101011010000101001011001110110110001010001010101100011000101010010110111111011011010000101001101101101111001 "
#163
b10000001010010111011000011101100110000011010110011011111010011011010000000100010000100000010111111001110000111101101110101111010 "
#164
b1011110000001100001010110001001000110010111111110000100111010101110010011010011011100010111111111011101100101111010010101000110 "
#165
b11011101011001110010000110101111101000000110101010110000000101000000000110011100110000010100010100010001000101100111101110000 "
#166
b1000011100100010110100011011000100100101110100000111000001011000011010110110100110000010110100110100111101000001100111011001111 "
#167
b11011001101100011011101101000111011011100010101101101101011100111011011011010001011011100000100011100011100010001101000011000011 "
#168
b1001110001010111001010110000100010101000001101101100110111110111001100000011111011001000010010110111111101011010100101000110010 "
#169
b100111100110011000011011001011000101001101100011111001010110111101111011110101100100101111000100000001011011011000000011101101 "
#170
b1101011011101101110001101100110000111101110000101111010110100001011011110111000000101101110110000010011011001000000011101101110 "
#171
b1001110111011110110101000100101100111011001010101000101010001101101110000011010000000100010001101111000110100010110101101011000 "
#172
b1101101101110011001010101000011101000100000111101001111011111011000111011010100000110101110111001101101010100100001001011100111 "
#173
b10111100111000110100110110100111101010101100010011001100001000010101111000011000110001010100101101101001011011110110110011101101 "
1M"
#174
b11000111010101011010100101101001000000110101100011111111100110111010011011100110000001101111000100110011010010110111011101100011 "
#175
b11110011100010111010000011011100001100101110000000001000110100001011000110110010000101111001011111110101100111111010100110111010 "
#176
b11010001100000000101101111000111011011000001110101101010000001100000011000010000101110111111110000001100000000011111101000000 "
#177
b110010001000010111111110010000011001000011000101101110000010000111000101000100001100000011111000010100000010100000011000000011 "
#178
b110010001101111000111110000110110110001101001101011011101001111111001101100100111101110101100100010011100010010111100000111100 "
#179
b10010001111111000111110000010111011010111001011010010111010001010001011001110111010001110101001111111101101010110101000110110 "
#180
b10010111101111010100111011000010011001101110010101101110001011101001101011010010000011000000011100000101100000100000000110111111 "
#181
b10110100110011110100000110101101111111001100001101010101010111111000111000000001100111010101111101000100001010000001111000001100 "
#182
b101011010101001111101110010001001110100011000000001011100010001101010101011100111101101100010101011100001001011001101011110001 "
#183
b1000010111100101110100011011000010000001100001110011111101000001000011011111100000111100000101010111110110000001100101011011111 "
#184
b10101111010011011011110101101101000010100011100110000011100010110101001000111000110001111010101100010010000010011000011110000011 "
#185
b11010001010111001101000011101101100000110111010000111111100101100010111101000110001011010100000101101011101101010110110000110110 "
#186
b11000001111101111010011111010001111111001101000001010001110110110101000111000001100110101010000010101100000110111100110111111 "
#187
b1101000111110010110001110100100000010001100101110000011010111000111111101000100110011010100000100000100001111010111111000001010 "
#188
b10010011100000110100000000110111101010011001110000110011101110100111100011010101101100110111100101011010001001000001101110001110 "
#189
b10011101011101110100101000011001001100011011100011110111010010110001011101110001101000010100111111000110110101001101111011011001 "
0M"
#190
b1010110111101110110111000100001110111110110001110100101100100000001001011100111101100001111011001110100000111111001011011111010 "
#191
b11111000001010001101010000000011100010011011001011000011010010001001011011111111100011101111001010010101100010100011100101000011 "
#192
b111111101111000000001011000010101111001110001000110101101011110101001101110100110001111011000100000111100000110111111000111111 "
#193
b11100101101100111010000110111000001101011010000110001001010011110010001110100110001010001111100101101100001111000001001000001010 "
#194
b111101101100010111110110111000100010111001011110111100110001101111111110101000000010100001010001111010001101110110101110001001 "
#195
b1101101100001111001110110110110100110100010011000111011011100010100101000101110110000110100001001000001101010100001111110110011 "
#196
b110111100010110111111000100011110001101111001101011110110101111101111000111111011111010101010100011000000011011000010011111101 "
#197
b11111100000111111010001000001010011110101111001110010100001010001101111000110000000001010100000011100010111001010101000000101110 "
#198
b10100110000000000011100101110000010010101111101000011100001010110110110011111100001001010111001010101100110010010100110101011100 "
#199
b11001011110001111010000010011100010010100110110111100000111010010110000000101101010101100100101111001101111001110101110110101 "
#200
b1100100001000010110011000000000101111001110111000110101101011010101110101110100001110101100111001111110001101100001010110001001 "
#201
b11100001000110111101011110111001101110101000110001001011001111100110011100111011111011000100100010001101111100000011110110101 "
#202
b11101100001011010101101011111010101000010101011110110000111001101110100011010001011110111000000001011110000110010110010110000100 "
#203
b10011110111110010101101011011100100110000010010011000100111100010101000101101010110000000010010010011100111100001100010101010111 "
#204
b1101010111111110110010000100101111011101101101101010010110110110001111101001110001001011010110110110010110010110100100000100011 "
#205
b10001011100010110100110000110011010101101101000101100110110110001000100011101010111000110111010011100001100101011010111110111001 "
1M"
#206
b1111100000001100001101000001001001101010101000011110110111001111111101000110000111100111010111110010010000010010100011101111100 "
#207
b1100100110011100001100101010101100010010100001110111100111000000001101011011110110111000001001001101011101111110110110000110101 "
#208
b10101010001111110100101110000101101111100011011000110101100010011110100101101011100011000010010000010110000010110111100110000011 "
#209
b1010000111101001110111110100001000100011011000110000111101101110011111000110011101001011010100000111011100111010111010000111010 "
#210
b11000001011001001101000000011001010111001101010101100101101001100011101110001101010001000001101001011001101001111001101101001110 "
#211
b110011010111111000011101111010101111000000000011001010111111110110010011110101010110011001111011111010111010001101010011010011 "
#212
b1011111111000100011100010001100000000100110001000000000111011111011000000111010101111111101001110001011000001110101110010 "
#213
b10010111101111000011011000110010110000111011011110100000001101100011100101101011010101000011001111010101011101011010011011101001 "
#214
b11000011100010110101000011001011001101011010001110001001101100000001111000111101010101011010101000000111100010101111111000111100 "
#215
b10001101010000111011101000011000100010111011111110111100110010101100111101110111100001010100111001101111100010000001001000111100 "
#216
b10101101101101100011110110111001100101100000011000111001100000011001001110010001011000001111000001001111101001110110001000110001 "
#217
b11001110001100001101110110000111001110010111001101110100000101110010011000011101101010011010010111000010111010011010000011010011 "
#218
b10001011111000011110000010011101101111111110010110001010101010011011000100000101101111111000101110001110111000110101110100 "
#219
b11110111101111000010111011000010101110000000101000110100000000111111111000001011011101010100101101010011010111101110011110011010 "
#220
b1000101101111000001000110111010011000111000000110010000001111110110011011010011101101101111100001110011100111001110100011000101 "
#221
b10101100110101011011110110101001101111000001001101001010000001111100100101001001100001000011101111111001101101100010101101001001 "
0M"
#222
b11101111100011001101101011001101001101110111010110001001011010011111000011101001011101110111010001111101101101000001010110110110 "
#223
b1100001011010111001000001010101011111000011110110010001111101000100110101010111000111001010000101101100101100000110110111001 "
#224
b1110111001000000101011011110010011010110010011100010000100010011010101000000110101100011111101100010001110101110111101110100 "
#225
b1011001011000000001010000011000111000001101010110101111010110010000010101000001010111100011000010100011010011110100111110011101 "
#226
b10000110001001111011101010001100011000000100101000010111111000111001000100110110011110100011010110100110001001100100110100001 "
#227
b10101001100000010100001110111000111100111011111000101000001101011101100101101100111111000011010110011011010110011011101110011011 "
#228
b11010111100111001101011000100101111101100001010000101001100001101101111000111100000001011010101011010010111111110101100011010101 "
#229
b11111011010111101101001101101010101111100001110000110101011110101101111000001100000001010101101001101000000000101110110000000000 "
#230
b10000001011101000011100011100110000111011011100110000101010010111011011011001100000101101110101000100000001011110111000000001101 "
#231
b1100010001110100001011101111011101011110111010101001101100101101111110110111011011101010110101110001101010011101100001011100010 "
#232
b1000001101011110110111110111101010011111000110011100010001111010001010000100010110111100010100011101100110100100010110110100111 "
#233
b11101010110010011010010011010011110011101111010110100010001010010100010011001011101010010111110001111101011001010110101011101110 "
#234
b11110010000010010101111110000100110110111000101110100100001111000111010110101011010010010110101100100000110000100000111101011111 "
#235
b10101000001110000011110000000100110111111001001011011010001110001100011011111000111111100001101110001010001010101100001110001100 "
#236
b1011000111110001110001110100011100010110110011011000011011011100100010101011101010001101100001010000100000000100011111011111111 "
#237
b1100011100001001110000000110001100110001111001000111011010101110010011011100010001011100000111101010000001000100001100000001111 "
1M"
#238
b11101111101001110101101000111001111000101110001101010000001011111010000110011000000101111001110001001111101011001110001011001101 "
#239
b10111011100010111000110010000101011011011000101001101010010000001110110101010001001011001001111000001011101011010000011101001 "
#240
b11001101010001010101001000010110011011001101110011101101101001011001010000111011100011100011110000010111100010111000011000111100 "
#241
b10011110000010111011110110001100011111111011011101101010110010010111011000010101101110010101100100101111100111010111001000111010 "
#242
b10111000000101110101010000011001000001011010101000000001101100111110001101010000111101111010111101001001101001101110001101001110 "
#243
b11100101101101011011000101000001010010000000100000011100111111001000110000001111100110100010001010111010111111011011010011010101 "
#244
b1111100110010010110110110101100101000111010010110110000001100011011111011110100111010101111000101001000001011011001110000001101 "
#245
b101100000000100000101011110111101100101100110011001000110111010011011011011011010101101110101110101101011000011011001011101111 "
#246
b10110010110010101100100000101100111000001111100110101111101010111001101110011101011001000001101001100001100111001110111101000101 "
#247
b10000110100011000111110101111100000010111100101000000000101001001001011001101100110001111110110010001101101110100011101001001 "
#248
b111110110101010111001011010110000101010111111000000110000101010011101011111101101111000001110101011101101001110110010110110001 "
#249
b10010110110101111011011011011110000001000001100101111110000001000111001000110101010111111010111010101010111010001100110011010011 "
#250
b11010100000101110101011011110001010101001111010000011001010101101010110110110000111011010111111100001110001010001111110101110011 "
#251
b1010101101000101110100101000000000100111001010011111000001110010010000110001010001011110110001111010100001000000010011011110000 "
#252
b11011000001011001101110011111101011110100001000101101011011110001100101110111000000001001111110000011111100011101111101011000010 "
#253
b1001111100011111001001011001010010011110101001000011101011001111011101101001101011010110100001010001110110110010100001000100100 "
0M"
#254
b11011111100110011010001000110011110000010110110110100000111011010001111110001111010110100001110111010110111111100010011011010101 "
#255
b1101010000010101110001101110100000100110110101110000111011011001101001011101111100000001111001000111000000101101111010000000110 "
#256
b11111000001011110101110000001101011110100001110101101011011110101000001000010000000111111010000001100110001110111001000101110100 "
#257
b101111101000000000001011000000010011011010001000011101010011110010001101101000110111111011001111110011010110110101011110011011 "
#258
b11110001011100111010000011100000111010111010110110101100110011011110011000000000000010011010000011110010110100000010100011011000 "
#259
b1010100000000000000011000001000000100010110100101111000111011001100010101011111100001101100001011100101010011000010111011100010 "
#260
b1000010111101001110100000100001010100100011010101100111011101100000011011010001010111100001000011001100111111010101110110101010 "
#261
b10001001011101001100110000011001011000011000000011101111101111111110100101010110111101000011011011110000001010111010100000001100 "
#262
b101010010110111011000011011100101000000011101000110000000010001010101110111101001100011011011001100000100000010001011111000 "
#263
b11111011111000000110110011010000100010110011101111000000100010110101110001110110011001110001011110111010011111010100101100010 "
#264
b1101110110100010110001000101000010100001110110101100111010100100100001011101101101110001111010110100100110000000011000110100000 "
#265
b11100111101000110101011011000111010001110110000011100001011011110101001101000010001111111011111111011010000010001101101110000011 "
#266
b1010000010111000011101000011010011000010110010011010000010010101000011110001010110101110111001011101011101101110000110010 "
#267
b1111110001001000001010110000110001101010100001101110110000111111001011110111000000111101110010010010001010101111011100011100110 "
#268
b1010111100101100001011011001001100011100011111110111101100010100000110000001001101000100010001101011000001001110110010011110001 "
#269
b10101011011011001100001101100101110100100000011000100111100000011111111011110110111110101111011011101110111010001101001011010011 "
1M"
#270
b10011000111010001100101101011011011010010111011011101100000101101000000011000110111001111000011001011110001011010110010101110010 "
#271
b1110100110010110110000101010011001101111011111101110110001101011111011101010000111000010100011110010101011000001100011011101111 "
#272
b1111010000110100001101110011011101001100000111110110001100000101010110000011110111000100010001000000001100010110111111101000011 "
#273
b11001101101111100010110101001101111110101100010011010100001000010011100110100010001010111001011100010111100111000000011000111010 "
#274
b1111100111101111001110110100110010000110101110000011111100110100001011011111000001001100000110000101001101100010111001101001000 "
#275
b11000001010110100010100000010011001100111011010110001000110010010110010101000011101101101100000000111100110101101111010110100110 "
#276
b10001001010001111011010011101110111101011000011110101001101111101111010101011001100111100011101100111100001110111000101011110100 "
#277
b11111010110101100010010011010001100001010110000000111110000100001100011110111010111111100001010000111011010111111000101110011010 "
#278
b101011101000000111011100110010000011000101000011111010000110010110000100101010100100010111001010011100011111001100011000010 "
#279
b11110100000100010101111000001000000101111000110110000110001111010100010011010100001010010110111001111110110010001110101000100011 "
#280
b1100101101110000001100101000100001011101110010101110010001011100101000000110111010010000010100100010001101001100000011110110001 "
#281
b101010110101110111110011010001010111001100011011100101010111100101010110011011010100010110001101011010111110010110010011010100 "
#282
b11100111101011101101111011000010101110110111110011001011100101010110101110111010001111001110101111001001011100001101110000010111 "
#283
b10111001010111000011010110010111000011100110011010000010110111101000001100110010110101110110110110110011111011011000100010 "
#284
b1011110000101000001110101111110101110110111000011001011100101110000010101110100110111101100100110110000110001011011011110100001 "
#285
b1111101100001001110010101001001010111101100100110011010001000110000110110010010110111011001100011001011010011011010001110011101 "
0M"
#286
b10100110110101100011111000101001100100011011000011000111101101111100111101011010111111011010110010010100111010111011100110101100 "
#287
b1010110110100011001011011010111010111001100101101100101101000111011111110000100000100100001111000010110000101110111100101111001 "
#288
b10110100000000001100011011110111101110011001100011001011101110110110001110101010001100001111101100111110001011010111010101110010 "
#289
b1100011100010011001100000110011011100001110100110010111010100111111101101101101100010110100110100010101011001111000011011101110 "
#290
b1001100001100110110101000010111110001100011001000100001011101110010011101011011101010011011110000000000111011010111111101010010 "
#291
b11011011110011000101110011011011100001110011110010111101011101010111011101100000100100001101000000111011001000000000101101110 "
