3_ADC/AD9234_Demo/.Xil/Vivado-212-DESKTOP-9BSENP7/hw_ila_data_1/zip_work/waveform.vcd
$date
        2018-Oct-08 14:19:29
$end
$version
        Vivado v2017.4 (64-bit)
$end
$timescale
        1ps
$end
$scope module dut $end
$var reg 1 " i_system_wrapper/system_i/start_LD_0_start1 $end
$var reg 64 # i_system_wrapper/system_i/format_9234_timestamp_0_out_0 [63:0] $end
$var reg 64 c i_system_wrapper/system_i/format_9234_timestamp_0_out_1 [63:0] $end
$var reg 12 E" i_system_wrapper/system_i/format_9234_timestamp_0_waveform_0 [11:0] $end
$var reg 12 Q" i_system_wrapper/system_i/format_9234_timestamp_0_waveform_1 [11:0] $end
$var reg 1 ]" i_system_wrapper/system_i/format_9234_timestamp_0_o_ps_irq $end
$var reg 1 ^" i_system_wrapper/system_i/format_9234_timestamp_0_o_adc_valid_0 $end
$var reg 1 _" i_system_wrapper/system_i/format_9234_timestamp_0_o_adc_valid_1 $end
$var reg 1 `" i_system_wrapper/system_i/format_9234_timestamp_0_o_adc_enable_0 $end
$var reg 1 a" i_system_wrapper/system_i/format_9234_timestamp_0_o_adc_enable_1 $end
$var reg 64 b" i_system_wrapper/system_i/axi_ad9680_core_adc_data_0 [63:0] $end
$var reg 64 D# i_system_wrapper/system_i/axi_ad9680_core_adc_data_1 [63:0] $end
$var reg 1 &$ i_system_wrapper/system_i/axi_ad9680_core_adc_valid_1 $end
$var reg 1 '$ i_system_wrapper/system_i/axi_ad9680_core_adc_enable_1 $end
$var reg 1 ($ i_system_wrapper/system_i/axi_ad9680_core_adc_valid_0 $end
$var reg 1 )$ i_system_wrapper/system_i/axi_ad9680_core_adc_enable_0 $end
$var reg 1 *$ i_system_wrapper/system_i/adc_fdb_1_1 $end
$var reg 1 +$ i_system_wrapper/system_i/adc_fdb_1_2 $end
$var reg 1 ,$ i_system_wrapper/system_i/adc_fdb_1_3 $end
$var reg 1 -$ i_system_wrapper/system_i/adc_fdb_1_4 $end
$var reg 1 .$ i_system_wrapper/system_i/adc_fdb_1_5 $end
$var reg 1 /$ i_system_wrapper/system_i/adc_fdb_1_6 $end
$var reg 1 0$ i_system_wrapper/system_i/adc_fdb_1_7 $end
$var reg 1 1$ i_system_wrapper/system_i/adc_fdb_1 $end
$var reg 128 2$ i_system_wrapper/system_i/axi_ad9680_jesd_rx_data_tdata [127:0] $end
$var reg 1 T% i_system_wrapper/system_i/sysref_2 $end
$var reg 1 U% i_system_wrapper/system_i/axi_ad9680_jesd_sync $end
$var reg 1 V% i_system_wrapper/system_i/adc_fda_1 $end
$var reg 1 W% i_system_wrapper/system_i/axi_ad9680_jesd_rx_data_tvalid $end
$var reg 4 X% i_system_wrapper/system_i/axi_ad9680_jesd_rx_sof [3:0] $end
$var reg 1 \% _TRIGGER $end
$var reg 1 ]% _WINDOW $end
$var reg 1 ^% _GAP $end
$upscope $end
$enddefinitions $end
#0
$dumpvars
1"
b0 #
b0 c
b0 E"
b0 Q"
0]"
0^"
0_"
1`"
1a"
b100100000000000010110000000000001010000000000000100000 b"
b1100000000000000000011111111111111000000000000000000 D#
1&$
1'$
1($
1)$
1*$
1+$
1,$
1-$
1.$
1/$
10$
11$
b1100000010000001111000011010000000000000000000011111111111111110111000001110000101100001101000000000000000000000000000000000000 2$
0T%
1U%
1V%
1W%
b1111 X%
1\%
1]%
0^%
$end
#1
b111100000000000010110000000000001000000000000000101000 b"
b1111111111110100000000000000000000000000000010000000000000010000 D#
b11010000111000001111000000100000111111111111111111111111000000001110000011000000100100000111000000000000000000000000000000000000 2$
1T%
#2
1]"
b11100000000000001110000000000001011000000000000110100 b"
b11000000000000001000011111111111111001111111111110100 D#
b110000001000001000000011100000000000010000000100000000111111111000000011000000010000001110000011111111111111110000000000000000 2$
#3
b111000000000000011000000000000001001000000000000011100 b"
b1111111111110100111111111111100011111111111111000000000000001000 D#
b10110000110000001100000000010000000000000000000000000000000000010001000011110000110000001000000000000000111111111111111111111111 2$
#4
b1111111111100000111111111111000000000000000100000000000000111000 b"
b1001100000000000100100000000000001000001111111111111000 D#
b1100000100100001111000001100000111111111111111111111111000000000100000000010000100100000001000000000001000000010000000000000000 2$
#5
b100111111111111110011111111111100001111111111100000 b"
b101100000000000011000000000000001100000000000001000100 D#
b1100000101100001010000010000000111111111111111111111111111111110100000011110000000000000100000000000001000000000000000100000001 2$
#6
b1010000000000000100010000000000001001000000000000000100 b"
b1111111111011000111111111110010011111111111111000000000000011000 D#
b11110000100000000011000000010000111111111111111111111111111111111111000001010000101100001010000000000000000000010000000100000001 2$
#7
0"
b111111111011 E"
b1000 Q"
1^"
1_"
b1010000000000000011110000000000010000000000000001010000 b"
b1111111111011000111111111110110011111111111010001111111111100000 D#
b11110000110100001101000011100000111111111111111111111111111111110000000011100000111000001100000000000001000000000000000000000000 2$
#8
b1111111111100011111111111110001111111111110100111111111111001011 #
b11000000000000001000011111111111111001111111111110100 c
b11 E"
b10010 Q"
b111100000000000101010000000000011011000000000001101000 b"
b1111111111111100111111111110000011111111110011001111111111000100 D#
b11110000111100001100000011000000111111111111111111111111111111111110000011100000000000001110000000000000000000000000000100000000 2$
#9
b1 #
b1 c
b111 E"
b10011 Q"
b1000000000000000011100000000000001110000000000000110000 b"
b1111111111111100111111111111010011111111111101001111111111111000 D#
b1100000101000001111000000000000111111111111111111111111000000000110000011110000110000001010000000000001000000000000000000000000 2$
#10
b1111111111000111111111111100111111111111110110111111111111100011 #
b1111111111110100111111111111100011111111111111000000000000001000 c
b10001 Q"
b111000000000000011100000000000010000000000000000111000 b"
b1111111111111100111111111111110011111111111100001111111111110000 D#
b11010000000000000000000000100000111111101111111111111111111111111100000010110000100000001010000000000001000000010000000100000001 2$
#11
b10 #
b10 c
b11 E"
b1100 Q"
b1011000000000000011110000000000001100000000000000101000 b"
b1111111111011000111111111110100011111111111111000000000000000000 D#
b1100000111100001011000011000000111111111111111011111110111111101001000011100000000000000001000000000001000000010000001000000010 2$
#12
b11111000000000000111111111111111011111111111111000111 #
b1001100000000000100100000000000001000001111111111111000 c
b0 E"
b1110000000000000110110000000000011000000000000001101000 b"
b1111111110110100111111111100000011111111110000001111111111001000 D#
b1100000101100001101000010100000111111111111111111111111111111110011000011100000110000000010000000000001000000000000000000000001 2$
#13
b11 #
b11 c
b111111111110 E"
b1011 Q"
b1100100000000000111100000000000100000000000000010000100 b"
b1111111111011000111111111011110011111111101011001111111110110000 D#
b1010000000100001110000011110000111111111111111111111110111111101000000011010000110100001000000000000001000000010000000100000001 2$
#14
b1111111111111011000000000000001100000000000011110000000000011111 #
b101100000000000011000000000000001100000000000001000100 c
b110 Q"
b1001100000000000011100000000000001100000000000001001000 b"
b1111111111011000111111111110110011111111111101001111111111101000 D#
b10010000111100000101000011000000000000010000000000000000111111110101000011110000100100000001000011111111111111110000000000000001 2$
#15
b100 #
b100 c
b111111110110 E"
b111111111111 Q"
b1100000000000000111010000000000011101000000000001100000 b"
b1111111111010100111111111100010011111111101110001111111110111100 D#
b10000001100000010000011000000111111110000000000000001000000010010000000110000010000000000000000000001000000001111111111111111 2$
#16
b1111111110101111111111111011101111111111110110111111111111111011 #
b1111111111011000111111111110010011111111111111000000000000011000 c
b111111101110 E"
b111111111001 Q"
b1111111111010100111111111111110000000000001001000000000001000100 b"
b1100100000000000011110000000000000101001111111111110000 D#
b11110000101000001001000000100000111111011111110111111101111111101111000000110000111000000100000000000010000000110000001000000010 2$
#17
b101 #
b101 c
b111111101011 E"
b111111110110 Q"
b1001000000000000000110011111111110100001111111111000000 b"
b1111111111000100000000000000110000000000010010000000000001110000 D#
b10000000011000000011000011100000111111101111111011111110111111010011000001000000100100001100000000000010000000100000001000000010 2$
0T%
#18
b1111111110101111111111111100001111111111101111111111111110101111 #
b1111111111011000111111111110110011111111111010001111111111100000 c
b111111111000 Q"
b10111100000000001100110000000000101110000000000010010000 b"
b1111111101111100111111110110100011111111011001001111111110001000 D#
b1010000011000000111000001110000111111101111111011111110111111100110000000110000010000000100000000000010000000100000001000000010 2$
#19
b110 #
b110 c
b111111101111 E"
b111111111010 Q"
b10001100000000001001000000000000101001000000000010110000 b"
b1111111110100000111111111001100011111111100011001111111101111000 D#
b10100000010100000010000000010000111111101111111011111110111111100100000001110000101000000111000000000010000000100000001000000010 2$
#20
b1111111111000011111111111010101111111111100100111111111110010111 #
b1111111111111100111111111110000011111111110011001111111111000100 c
b111111110000 E"
b111111111011 Q"
b10011000000000001000110000000000100100000000000010010000 b"
b1111111110010100111111111001100011111111100111001111111110011100 D#
b111000000001000010000000111111101111110111111110111111101101000010110000011100000100000000000010000000100000001000000010 2$
#21
b111 #
b111 c
b111111101011 E"
b111111110110 Q"
b10010000000000001001110000000000101010000000000010011100 b"
b1111111110101000111111111001010011111111100010001111111110000100 D#
b10100000011000001100000011000000000000000000000011111111111111100011000010010000001100000010000000000000000000000000000100000010 2$
#22
b1111111110111111111111111100011111111111110001111111111111001111 #
b1111111111111100111111111111010011111111111101001111111111111000 c
b111111100101 E"
b111111110001 Q"
b10110100000000001010110000000000100111000000000010010000 b"
b1111111110000000111111110111100011111111100001001111111110100000 D#
b1110000110000000010000001100000111111111111111100000000000000000100000010110000100000000011000000000001000000000000000000000000 2$
#23
b1000 #
b1000 c
b111111100100 E"
b111111110011 Q"
b1100000000000010010000000000010011000000000010001000 b"
b101000000000000001100011111111111100001111111110110000 D#
b11010000011100000010000001010000111111111111111111111111111111110010000010010000100100001000000000000001000000010000000100000001 2$
#24
b1111111111000111111111111100011111111111101111111111111111000111 #
b1111111111111100111111111111110011111111111100001111111111110000 c
b111111101010 E"
b111111111000 Q"
b1010000000000000010110000000000001000000000000000001100 b"
b1111111111011100111111111111000000000000000010000000000000011000 D#
b1010000100000001100000011110000111111111111111111111111111111110111000000010000111000001101000000000001000000010000000000000000 2$
#25
b1001 #
b1001 c
b111111110000 E"
b111111111111 Q"
b1001000000000000110010000000000011001000000000001100000 b"
b1111111111110100111111111101110011111111110010001111111111010100 D#
b11000000110000000010000011000000111111011111110111111110111111100000000011110000011100001100000000000011000000100000001000000001 2$
#26
b1111111110100111111111111100001111111111110011111111111111010111 #
b1111111111011000111111111110100011111111111111000000000000000000 c
b111111110011 E"
b111111111110 Q"
b1011100000000000100010000000000001110000000000000110100 b"
b1111111111010100111111111110000011111111111100001111111111111100 D#
b100000001100001100000001000000111111111111111111111110111111101010000011000000000100001011000000000001000000010000001000000010 2$
#27
b1010 #
b1010 c
b111111110001 E"
b111111111101 Q"
b11000000000000001011110000000000100111000000000001110000 b"
b1111111101110000111111110111000011111111100010001111111110110000 D#
b11010000001000000110000011100000111111011111111011111110111111101111000010010000000000001101000000000010000000100000001000000001 2$
#28
b1111111110001111111111111001001111111111100111111111111110010111 #
b1111111110110100111111111100000011111111110000001111111111001000 c
b1101000000000000111000000000000100001000000000010101100 b"
b1111111111001000111111111100110011111111101100001111111110010000 D#
b10010000110000000010000010110000111111111111111011111110111111011000000001010000111000000010000000000001000000100000001000000011 2$
#29
b1011 #
b1011 c
b111111101111 E"
b111111111111 Q"
b10111100000000001010010000000000100000000000000001110100 b"
b1111111101110100111111111000100011111111100110001111111110111000 D#
b11000000111100001110000010000000000000000000000000000000000000001110000011100000000100001010000011111111111111110000000000000000 2$
#30
b1111111110011011111111111000011111111111011111111111111101111011 #
b1111111111011000111111111011110011111111101011001111111110110000 c
b111111110001 E"
b111111111100 Q"
b1100000000000001001010000000000101110000000000011001000 b"
b1111111111100100111111111011000011111111100010001111111101101100 D#
b1110000011100000111000010000000000000000000000000000000000000000100000001100000010000000000000000000000000000000000000000000000 2$
#31
b1100 #
b1100 c
b111111101111 E"
b1111111111111000111111111111100000000000000001000000000000101000 b"
b110000000000000011110000000000001110000000000000100000 D#
b1010000110100001110000001000000000000001111111111111111000000001010000000010000110000000111000000000000000000010000000000000000 2$
#32
b1111111110110011111111111100011111111111110011111111111110110111 #
b1111111111011000111111111110110011111111111101001111111111101000 c
b111111110001 E"
b111111111111 Q"
b10000000000000001100000000000000100000000000000000000 b"
b11100000000000001110000000000000111000000000000100000 D#
b110000110000000011000000010000000000000000000000000001000000011000000011100000101100001110000000000000111111111111111111111111 2$
#33
b1101 #
b1101 c
b101000000000000100010000000000001100000000000000011100 b"
b10100111111111111010011111111111110000000000000010000 D#
b10100000010100000001000000000000000000000000000000000000000000000110000010010000110000001100000000000000000000000000000000000000 2$
1T%
#34
b1111111110011111111111111000101111111111100010111111111110011111 #
b1111111111010100111111111100010011111111101110001111111110111100 c
b111111110101 E"
b0 Q"
b100000111111111111100011111111111011001111111111111000 b"
b1100000000000011000000000000010011000000000001000100 D#
b100000110000001101000011000000000000010000000000000000000000001101000000010000000000000001000011111111000000000000000000000000 2$
#35
b1110 #
b1110 c
b111111110011 E"
b111111111111 Q"
b11000000000000010010000000000001100000000000000110000 b"
b101000000000000001010000000000000001000000000000000000 D#
b11110000101000001110000010000000000000000000000100000001000000011010000001000000001100000110000011111111111111111111111111111111 2$
#36
b101011000000000000001111111111110110111111111110111011 #
b1100100000000000011110000000000000101001111111111110000 c
b111111110000 E"
b111111111010 Q"
b1111111111110100000000000000010000000000000000000000000000000100 b"
b1001000000000000011000000000000001101000000000000110000 D#
b11010000011000000110000000010000111111111111111111111111000000000100000010010000010000000111000000000001000000010000000100000000 2$
#37
b1111 #
b1111 c
b111111101001 E"
b111111110110 Q"
b1111111111101000111111111101000011111111110011001111111111011000 b"
b111100000000000110100000000000011110000000000001100000 D#
b10110000101100000000000010000000111111110000000000000001000000001011000011110000111000000101000000000000111111111111111100000000 2$
#38
b1111111110110111111111111111001100000000001011110000000000111111 #
b1111111111000100000000000000110000000000010010000000000001110000 c
b111111100101 E"
b111111110010 Q"
b1010000000000000110010000000000010100000000000000011100 b"
b1111111111110100111111111101100011111111110110000000000000000100 D#
b100000011100001101000000100000111111111111111011111110111111111111000000010000000000000111000000000001000000100000001000000001 2$
#39
b10000 #
b10000 c
b111111100111 E"
b111111110000 Q"
b101100111111111111110011111111111110000000000000010100 b"
b1111111111101100000000000010110000000000010000000000000000100000 D#
b10100001100000011110000000000010000000100000000111111111001000010100000001100000011000011111111111111110000000000000001 2$
#40
b1111111101000011111111110011001111111111010001111111111101101111 #
b1111111101111100111111110110100011111111011001001111111110001000 c
b111111100100 E"
b1111100000000001000010000000000100000000000000001011100 b"
b1111111111001000111111111001110011111111101101001111111111001000 D#
b10010000011100001100000001110000111111111111111111111111000000000111000001000000110000000011000000000001000000010000000000000000 2$
#41
b10001 #
b10001 c
b111111100011 E"
b111111101101 Q"
b1111111111100100111111111110100000000000000011000000000001001100 b"
b1000000000000000101010000000000001100001111111111111100 D#
b10000000000000110000001000000011010000100101100100011000001100100000001110000011000001001000010100010110000101110100111111110 2$
#42
b1111111101110011111111110110111111111111010110111111111101001111 #
b1111111110100000111111111001100011111111100011001111111101111000 c
b111111011110 E"
b111111101100 Q"
b1011100000000000101000000000000001100000000000000001100 b"
b1111111111100100111111111101110011111111111100000000000000011100 D#
b11110000111100001111000011110000011111110111111101111111011110110000000000000000000000001001000010000000100000001000000010001011 2$
#43
b10010 #
b10010 c
b111111011111 E"
b111111101011 Q"
b1110100010010000111100001001110011111010010110001111111110100100 b"
b1101000000100000100101100000000001000110110000000000110010000 D#
b11110000111100001111000011110000011111110111111101111111011111110000000000000000000000000000000010000000100000001000000010000000 2$
#44
b1111111101100111111111110111001111111111011011111111111101101111 #
b1111111110010100111111111001100011111111100111001111111110011100 c
b111111100001 E"
b111111101111 Q"
b1110000000000000111000000000000011100000000000001110001011100100 b"
b1111111111100000111111111110000011111111111000001111011111100 D#
#45
b10011 #
b10011 c
b111111100110 E"
b111111110110 Q"
b1110000000000000111000000000000011100000000000001110000000000000 b"
b1111111111100000111111111110000011111111111000001111111111100 D#
#46
b1111111101101111111111110110001111111111010101111111111101100011 #
b1111111110101000111111111001010011111111100010001111111110000100 c
b111111101101 E"
b111111111010 Q"
#47
b10100 #
b10100 c
b111111110011 E"
b111111111101 Q"
#48
b1111111101001011111111110101001111111111011000111111111101101111 #
b1111111110000000111111110111100011111111100001001111111110100000 c
b111111110001 E"
b111111111011 Q"
b110000111100001111000011110000011010010111111101111111011111111011000000000000000000000000000010001000100000001000000010000000 2$
#49
b10101 #
b10101 c
b111111101100 E"
b111111110110 Q"
b11000000001100000100000000000000111110011111010000000110000111101000000001100000101000001001000000001011000010011111011011001111 2$
0T%
#50
b1111111111110011111111111101101111111111101100111111111101110111 #
b101000000000000001100011111111111100001111111110110000 c
b111111100111 E"
b111111101111 Q"
b1110001000101100111000000000000011100000000000001110000000000000 b"
b1101001001100000111111111110000011111111111000001111111111100 D#
b10100000111100000101000001010000000000100000001100000001000000000011000001010000011100001110000011111101111111101111111100000101 2$
#51
b10110 #
b10110 c
b111111100010 E"
b111111101110 Q"
b1011100000000000100101100011111101101010001111001111100100 b"
b1111111001110000111111010000110000000001100100000000011110000000 D#
b100000011000001101000010000000111111001111111011111111000000011111000011110000101000000110000000000011000000010000000011111111 2$
#52
b1111111110101111111111111101001111111111110111111111111111110011 #
b1111111111011100111111111111000000000000000010000000000000011000 c
b111111110001 Q"
0]"
b1111111101001100111111111001010011111111110111000000000101111000 b"
b10101000000000001111110000000000010101000000000000010100 D#
b110000111000000101000000000000111100111111010011110111111110100010000000010000110100000011000000001101000010110000100000000110 2$
#53
b10111 #
b10111 c
b111111100111 E"
b111111110101 Q"
b11111100000000000111110000000000001010001111111111011000 b"
b1111111100001000111111111001100011111111111101000000000001100000 D#
b11000000101000001010000000010000111100011111000111110001111100100000000000110000001100001010000000001111000011110000111100001110 2$
#54
b1111111110110111111111111001101111111111100110111111111110011111 #
b1111111111110100111111111101110011111111110010001111111111010100 c
b111111101110 E"
b111111111100 Q"
b1101001000000000101100010000000010001101000000000110001100 b"
b1111110011001100111111010011100011111101110101001111111010000000 D#
b10000000010000000001000011000000111100101111001011110010111100010111000010100000110100001111000000001110000011100000111000001110 2$
#55
b11000 #
b11000 c
b111111110110 E"
b101 Q"
b1111000000000000111100110000000011110011000000001110101000 b"
b1111110001110000111111000110100011111100011010001111110010000100 D#
b1100000100000001001000010110000111100101111001011110010111100100101000000110000000100000010000000001110000011100000111000001110 2$
#56
b1111111110100011111111111011101111111111110001111111111111001011 #
b1111111111010100111111111110000011111111111100001111111111111100 c
b0 E"
b1111 Q"
b1110011100000000111010100000000011101101000000001110111100 b"
b1111110010100000111111001001000011111100100001001111110001110000 D#
b110000000000000001000001000000111100101111001011110010111100101010000011000000101000001010000000001110000011100000111000001110 2$
#57
b11001 #
b11001 c
b1010 E"
b11001 Q"
b1110010100000000111000110000000011100001000000001110001000 b"
b1111110010011000111111001010000011111100101001001111110010101100 D#
b11110000100100000001000010000000111100111111001111110011111100100000000001010000111000000101000000001101000011010000110100001110 2$
#58
b1111111100111111111111110100001111111111011000111111111110001111 #
b1111111101110000111111110111000011111111100010001111111110110000 c
b1111 E"
b11100 Q"
b1110101000000000111011000000000011101010000000001110101000 b"
b1111110010001100111111001000000011111100100001001111110010010000 D#
b1100000111000000110000011000000111100101111001011110011111100110010000011000000010000000000000000001110000011010000110100001101 2$
#59
b11010 #
b11010 c
b1011 E"
b10010 Q"
b1101000000000000110101010000000011011110000000001110010100 b"
b1111110011111100111111001110010011111100110001001111110010100000 D#
b1100000100100000110000000110000111100101111001011110010111100100110000001000000011100001001000000001110000011100000111000001110 2$
#60
b1111111110010111111111111000111111111111011110111111111101010011 #
b1111111111001000111111111100110011111111101100001111111110010000 c
b111111111100 E"
b11 Q"
b1110001000000000110111000000000011010100000000001101000000 b"
b1111110010011000111111001011100011111100110110001111110011110000 D#
b1000000010100000110000011000000111100011111000111110001111100010111000001110000001100001101000000001111000011110000111100001110 2$
#61
b11011 #
b11011 c
b111111101101 E"
b111111110001 Q"
b1110011000000000111001000000000011100111000000001110100100 b"
b1111110010011000111111001010010011111100100110001111110010001100 D#
b10010000000100001001000001100000111100101111001011110001111100010110000011010000010000001001000000001110000011100000111100001111 2$
#62
b1111111101000011111111110101101111111111011111111111111110001011 #
b1111111101110100111111111000100011111111100110001111111110111000 c
b111111011011 E"
b111111100010 Q"
b1111011100000000111101110000000011110011000000001110110100 b"
b1111110001010000111111000101010011111100010110001111110001110000 D#
b100000101000000001000011010000111101001111001111110011111100101101000001010000101000000001000000001100000011010000110100001110 2$
#63
b11100 #
b11100 c
b111111010001 E"
b111111011001 Q"
b1110011000000000111011010000000011110100000000001111100100 b"
b1111110010100100111111001000010011111100011001001111110001011000 D#
b110000100100001101000010000000111101001111010011110100111101001001000000100000000000000110000000001100000011000000110000001100 2$
#64
b1111111110011111111111110110101111111111010001111111111100110111 #
b1111111111100100111111111011000011111111100010001111111101101100 c
b111111001100 E"
b111111011010 Q"
b1100110100000000110101010000000011011010000000001110000100 b"
b1111110100001000111111001110100011111100110001001111110010110100 D#
b100000001000001000000011100000111100111111001111110011111100111100000001110000001000001101000000001101000011010000110100001100 2$
#65
b11101 #
b11101 c
b111111010000 E"
b111111011111 Q"
b1100100100000000110000100000000011000000000000001100011000 b"
b1111110100001100111111010010010011111101001101001111110100100000 D#
b110000100000001101000000110000111101011111010011110011111100111110000001110000001100001010000000001011000011000000110100001101 2$
1T%
#66
b111000000000000011111111111111110111111111111010111 #
b110000000000000011110000000000001110000000000000100000 c
b111111010011 E"
b111111011110 Q"
b1101110000000000110101110000000011010010000000001100110100 b"
b1111110011001000111111001100100011111100111000001111110011111000 D#
b1000000101000001100000111101011111010111110101111101011101000010100000011100000111000000001011000010110000101100001011 2$
#67
b11110 #
b11110 c
b111111010110 E"
b111111100011 Q"
b1011111000000000110001110000000011010011000000001101101000 b"
b1111110101001100111111010010000011111100111101001111110011001100 D#
b1010000100000001001000010110000111101001111010011110100111101001000000001000000001100000001000000001100000011000000110000001100 2$
#68
b1111111111101111111111111110011111111111111011111111111111111111 #
b11100000000000001110000000000000111000000000000100000 c
b111111011011 E"
b111111100110 Q"
b1011110100000000101110100000000010110111000000001011011100 b"
b1111110101000000111111010100100011111101010101001111110101011000 D#
b110000100100000011000000010000111101011111010011110100111101001111000001100000101000001100000000001011000011000000110000001100 2$
#69
b11111 #
b11111 c
b111111011100 E"
b111111101000 Q"
b1100100000000000110001000000000011000011000000001100000100 b"
b1111110100010100111111010010000011111101001001001111110100101100 D#
b1110000000100001001000001010000111101101111011011110101111101011001000000000000011000000111000000001010000010110000101100001011 2$
#70
b1111111111010111111111111011101111111111110011111111111111100011 #
b10100111111111111010011111111111110000000000000010000 c
b111111011011 E"
b111111100111 Q"
b1011111100000000110001100000000011001010000000001100110000 b"
b1111110101001100111111010010010011111101000011001111110100000100 D#
b1100000010000001010000011100000111101011111011011110110111101100010000010000000111000000010000000001011000010100000100100001010 2$
#71
b100000 #
b100000 c
b1010100100000000101100000000000010110110000000001011011100 b"
b1111110110011100111111011000010011111101011001001111110101010100 D#
b100000100000010110000111101001111010011110100111101001110000010100000011100000000000000001100000011000000110000001100 2$
#72
b1111111111011111000000000000011100000000000100110000000000000111 #
b1100000000000011000000000000010011000000000001000100 c
b111111011100 E"
b111111100110 Q"
b1011001000000000101010000000000010011110000000001010001000 b"
b1111110101011000111111011001000011111101101010001111110110111000 D#
b11010000110100001101000000000000111100111111001111110011111101000010000011110000111000001100000000001101000011000000110000001100 2$
#73
b100001 #
b100001 c
b111111011001 E"
b111111100101 Q"
b1100111000000000110010100000000011000111000000001100000000 b"
b1111110100000000111111010000010011111101000100001111110100101100 D#
b10100000010100000101000010000000111100111111001111110011111100110011000001110000011000000011000000001101000011010000110100001101 2$
#74
b1111111111100111111111111101101111111111110011111111111111001111 #
b101000000000000001010000000000000001000000000000000000 c
b111111011000 E"
b111111100001 Q"
b1101001000000000110011110000000011001110000000001100110000 b"
b1111110011110100111111001111010011111100111101001111110100000000 D#
b100000000100001101000000110000111101011111010111110100111101001001000011100000010000001110000000001011000010110000110000001100 2$
#75
b100010 #
b100010 c
b111111010101 E"
b111111100010 Q"
b1101001100000000110101110000000011010110000000001101001100 b"
b1111110011101000111111001101010011111100110101001111110011100000 D#
b11000000010100000101000011010000111101001111010011110100111101000111000001110000001000001100000000001100000011000000110000001011 2$
#76
b1011111111111111101111111111111111111111111111111011 #
b1001000000000000011000000000000001101000000000000110000 c
b111111011000 E"
b111111100101 Q"
b1011100100000000101111100000000011000100000000001100111000 b"
b1111110101001000111111010100010011111101001101001111110100001100 D#
b100000010000000000000001100000111101101111011011110110111101011001000010000000111100001010000000001010000010100000101000001011 2$
#77
b100011 #
b100011 c
b111111011011 E"
b111111101010 Q"
b1100011100000000110001110000000011000010000000001011110000 b"
b1111110100110000111111010001010011111101000101001111110100110100 D#
b10000110000001001000011000000111101101111010111110101111101011101000000100000001100001111000000001010000010110000101100001010 2$
#78
b10111000000000010111100000000001100110000000000100111 #
b111100000000000110100000000000011110000000000001100000 c
b111111101000 Q"
b1010100100000000101010000000000010101111000000001011101000 b"
b1111110110001000111111011001000011111101100000001111110101011000 D#
b10000100100000010000000110000111101011111010111110110111101101011000000010000100000001001000000001011000010110000101000001010 2$
#79
b100100 #
b100100 c
b111111011000 E"
b111111100001 Q"
b1010110100000000101100100000000010110011000000001010111100 b"
b1111110110000100111111010111000011111101011001001111110101110000 D#
b1100000110100001000000010010000111101011111010011110100111101001011000000010000010100000011000000001011000011000000110000001100 2$
#80
b1111111110101111111111111001101111111111101011111111111111100011 #
b1111111111110100111111111101100011111111110110000000000000000100 c
b111111010100 E"
b111111011110 Q"
b1011101100000000101100010000000010101000000000001010100100 b"
b1111110101000100111111010110010011111101100010001111110110001100 D#
b1010000111000000011000011010000111101011111010111110110111101010110000011000000101100000000000000001011000010100000101000001011 2$
#81
b100101 #
b100101 c
b111111010010 E"
b111111100000 Q"
b1011101100000000110000010000000011000101000000001100001100 b"
b1111110101011000111111010011010011111101001000001111110100100100 D#
b11010000100000000000000011100000111101011111010111110101111101000100000010000000111100001110000000001011000010110000101100001011 2$
0T%
#82
b1111111111010011000000000000001100000000000001111111111111101011 #
b1111111111101100000000000010110000000000010000000000000000100000 c
b111111011101 E"
b111111101100 Q"
b1011011000000000101011000000000010101011000000001011000000 b"
b1111110101010100111111010111100011111101100011001111110101110100 D#
b110000001111000001100000111101011111010011110100111101011110000011110000101100000101000000001011000010110000101100001011 2$
#83
b100110 #
b100110 c
b111111101100 E"
b111111111100 Q"
b1011010000000000101110000000000010111111000000001011111000 b"
b1111110101110100111111010110000011111101010000001111110100111000 D#
b110000000100001101000001110000111101101111011011110101111101011010000011010000000100000110000000001010000010100000101100001011 2$
#84
b1111111110000011111111110111101111111111011111111111111110100011 #
b1111111111001000111111111001110011111111101101001111111111001000 c
b111111110110 E"
b110 Q"
b1011111000000000101111110000000010111011000000001011010100 b"
b1111110101000000111111010011000011111101001111001111110101011000 D#
b1110000100000001011000000100000111101011111010111110101111101100111000001010000000000001110000000001011000010110000101100001010 2$
#85
b100111 #
b100111 c
b111111111100 E"
b1010 Q"
b1010101000000000101011010000000010110001000000001011011000 b"
b1111110110001100111111011000010011111101011101001111110101011100 D#
b11010000101100001010000010000000111101011111010111110101111101010011000000110000010100000101000000001011000010110000101100001011 2$
#86
b11011000000000001011111111111111100111111111110110011 #
b1000000000000000101010000000000001100001111111111111100 c
b110 Q"
b1011011100000000101101010000000010110000000000001010111000 b"
b1111110101011100111111010110000011111101011011001111110110001000 D#
b1100000100000001011000000100000111110001111011111110110111101101100000010010000011000001110000000001000000010010000101000001010 2$
#87
b101000 #
b101000 c
b111111110111 E"
b10 Q"
b1011001100000000101100110000000010110101000000001011010100 b"
b1111110101110100111111010110110011111101011010001111110101100000 D#
b100000000101000000000000111110011111100111111001111110011010000001110000011100000001000000000111000001110000011100001000 2$
#88
b1111111110100011111111111010111111111111110011111111111111110011 #
b1111111111100100111111111101110011111111111100000000000000011100 c
b111111110100 E"
b111111111100 Q"
b1000110000000000100110010000000010100110000000001010111000 b"
b1111111000011000111111011110000011111101101011001111110110001000 D#
b100000011100001011000001110000111101111111011111110111111110001100000001100000111100000101000000001001000010010000100000001000 2$
#89
b101001 #
b101001 c
b111111101011 E"
b111111110111 Q"
b111101000000000011101110000000001110111000000001000000100 b"
b1111111001000000111111100110000011111110010101001111111001000000 D#
b110000111000001100000011100000111101111111011011110110111101101101000000010000001000000001000000001001000010100000101000001010 2$
#90
b1011101101111000011110110001100000101101001110000000001011011 #
b1101000000100000100101100000000001000110110000000000110010000 c
b111111100111 E"
b111111110101 Q"
b1001110000000000100101100000000010001111000000001000010100 b"
b1111110111001000111111011101110011111101111011001111111000011100 D#
b10000011000001010000010010000111101111111011111110111111101111011000001010000001100000111000000001001000010010000100100001001 2$
#91
b101010 #
b101010 c
b111111100110 E"
b111111110010 Q"
b1001110100000000101000010000000010100010000000001010000100 b"
b1111110111001100111111011011100011111101101100001111110110111000 D#
b11110000000100000011000010000000111101011111011011110110111101101110000011000000100100000010000000001010000010100000101000001010 2$
#92
b1111111111111000111111111111100011111111111110001110100011011 #
b1111111111100000111111111110000011111111111000001111011111100 c
b111111110111 Q"
b1001101100000000100101010000000010010011000000001001011100 b"
b1111110111000100111111011101100011111101111010001111110111100100 D#
b10100000100100000110000011000000111101011111010111110101111101010100000001100000001100000001000000001011000010110000101100001011 2$
#93
b101011 #
b101011 c
b111111101101 E"
b111111111101 Q"
b1010111000000000101011000000000010101001000000001010001000 b"
b1111110101111100111111011000010011111101100011001111110110100000 D#
b11100000011000000001000011110000111101101111011011110110111101010101000010000000101100000001000000001010000010100000101000001011 2$
